{
  "keys": [
    "8a8b54814577e89132033f23dd66506b2cbed5f43b619dce56517d201dce9801a9",
    "c3581c71a781b465a9bcd7224e6b6b3f8bf58ffa750bae7ce910d1d32522bc808b",
    "a8385d50156622ffad2ed91f654a53c730ea03386fc41e429464c8708b974a5962",
    "8e3fe605fa2c3a48615781465efacb2b12e00d3ec1ee070a4933229d442de8d6ab",
    "13ed3ce310d4ecbfc273b1f857dedf58f5cae8f1277a0cb96fac1fa6f30c24e5c6"
  ],
  "keys_base64": [
    "iotUgUV36JEyAz8j3WZQayy+1fQ7YZ3OVlF9IB3OmAGp",
    "w1gccaeBtGWpvNciTmtrP4v1j/p1C6586RDR0yUivICL",
    "qDhdUBVmIv+tLtkfZUpTxzDqAzhvxB5ClGTIcIuXSlli",
    "jj/mBfosOkhhV4FGXvrLKxLgDT7B7gcKSTMinUQt6Nar",
    "E+084xDU7L/Cc7H4V97fWPXK6PEnegy5b6wfpvMMJOXG"
  ],
  "root_token": "fe2f31fa-d79c-b3f8-965a-d7d9007d164a"
}